<svg width="26" height="20" viewBox="0 0 26 26" fill="none" xmlns="http://www.w3.org/2000/svg">
<g transform="scale(1.4) translate(-3.5 -2)">
<path d="M5.88532 18.4628H19.3215C21.6047 18.4628 23.4557 16.6118 23.4557 14.3286C23.4557 12.3895 22.1207 10.7622 20.3196 10.3157C20.343 10.1062 20.355 9.89328 20.355 9.67757C20.355 6.53809 17.81 3.99304 14.6705 3.99304C12.0665 3.99304 9.8715 5.74391 9.19844 8.13261C9.12807 8.12905 9.05723 8.12725 8.98598 8.12725C6.70272 8.12725 4.85177 9.97819 4.85177 12.2615C4.85177 12.3201 4.85299 12.3785 4.85541 12.4366C3.64922 12.8612 2.78467 14.0107 2.78467 15.3621C2.78467 17.0746 4.17288 18.4628 5.88532 18.4628Z" fill="white"/>
</g>
</svg>
